
{
  "header": {
    "reportVersion": 2,
    "event": "Allocation failed - JavaScript heap out of memory",
    "trigger": "FatalError",
    "filename": "report.20200429.142219.12044.0.001.json",
    "dumpEventTime": "2020-04-29T14:22:19Z",
    "dumpEventTimeStamp": "1588162939407",
    "processId": 12044,
    "threadId": null,
    "cwd": "C:\\Users\\Isabel\\Documents\\Github\\katasrunners\\isromar\\ejercicios_basicos\\3-caesars-cypher\\javascript",
    "commandLine": [
      "C:\\Program Files\\nodejs\\node.exe",
      "C:\\Users\\Isabel\\Documents\\GitHub\\katasrunners\\isromar\\ejercicios_basicos\\3-caesars-cypher\\javascript\\node_modules\\@babel\\node\\lib\\_babel-node",
      "./spec/run.js"
    ],
    "nodejsVersion": "v12.16.2",
    "wordSize": 64,
    "arch": "x64",
    "platform": "win32",
    "componentVersions": {
      "node": "12.16.2",
      "v8": "7.8.279.23-node.34",
      "uv": "1.34.2",
      "zlib": "1.2.11",
      "brotli": "1.0.7",
      "ares": "1.15.0",
      "modules": "72",
      "nghttp2": "1.40.0",
      "napi": "5",
      "llhttp": "2.0.4",
      "http_parser": "2.9.3",
      "openssl": "1.1.1e",
      "cldr": "36.0",
      "icu": "65.1",
      "tz": "2019c",
      "unicode": "12.1"
    },
    "release": {
      "name": "node",
      "lts": "Erbium",
      "headersUrl": "https://nodejs.org/download/release/v12.16.2/node-v12.16.2-headers.tar.gz",
      "sourceUrl": "https://nodejs.org/download/release/v12.16.2/node-v12.16.2.tar.gz",
      "libUrl": "https://nodejs.org/download/release/v12.16.2/win-x64/node.lib"
    },
    "osName": "Windows_NT",
    "osRelease": "6.1.7601",
    "osVersion": "Windows 7 Ultimate Service Pack 1",
    "osMachine": "x86_64",
    "cpus": [
      {
        "model": "AMD A8-5500 APU with Radeon(tm) HD Graphics    ",
        "speed": 3194,
        "user": 26220741,
        "nice": 0,
        "sys": 10801306,
        "idle": 156192194,
        "irq": 404354
      },
      {
        "model": "AMD A8-5500 APU with Radeon(tm) HD Graphics    ",
        "speed": 3194,
        "user": 7176716,
        "nice": 0,
        "sys": 3955015,
        "idle": 182081808,
        "irq": 398348
      },
      {
        "model": "AMD A8-5500 APU with Radeon(tm) HD Graphics    ",
        "speed": 3194,
        "user": 20045722,
        "nice": 0,
        "sys": 10281136,
        "idle": 162886556,
        "irq": 285341
      },
      {
        "model": "AMD A8-5500 APU with Radeon(tm) HD Graphics    ",
        "speed": 3194,
        "user": 2739533,
        "nice": 0,
        "sys": 2319220,
        "idle": 188154537,
        "irq": 379488
      }
    ],
    "networkInterfaces": [
      {
        "name": "Conexión de área local",
        "internal": false,
        "mac": "00:00:25:2a:df:a1",
        "address": "fe80::25d8:3955:6737:fb20",
        "netmask": "ffff:ffff:ffff:ffff::",
        "family": "IPv6",
        "scopeid": 13
      },
      {
        "name": "Conexión de área local",
        "internal": false,
        "mac": "00:00:25:2a:df:a1",
        "address": "192.168.1.36",
        "netmask": "255.255.255.0",
        "family": "IPv4"
      },
      {
        "name": "VirtualBox Host-Only Network",
        "internal": false,
        "mac": "0a:00:27:00:00:13",
        "address": "fe80::2cdb:c95a:6bf5:63d4",
        "netmask": "ffff:ffff:ffff:ffff::",
        "family": "IPv6",
        "scopeid": 19
      },
      {
        "name": "VirtualBox Host-Only Network",
        "internal": false,
        "mac": "0a:00:27:00:00:13",
        "address": "192.168.56.1",
        "netmask": "255.255.255.0",
        "family": "IPv4"
      },
      {
        "name": "Loopback Pseudo-Interface 1",
        "internal": true,
        "mac": "00:00:00:00:00:00",
        "address": "::1",
        "netmask": "ffff:ffff:ffff:ffff:ffff:ffff:ffff:ffff",
        "family": "IPv6",
        "scopeid": 0
      },
      {
        "name": "Loopback Pseudo-Interface 1",
        "internal": true,
        "mac": "00:00:00:00:00:00",
        "address": "127.0.0.1",
        "netmask": "255.0.0.0",
        "family": "IPv4"
      }
    ],
    "host": "AMDPC"
  },
  "javascriptStack": {
    "message": "No stack.",
    "stack": [
      "Unavailable."
    ]
  },
  "nativeStack": [
    {
      "pc": "0x000000013f662309",
      "symbol": "std::basic_ostream<char,std::char_traits<char> >::operator<<+11577"
    },
    {
      "pc": "0x000000013f666869",
      "symbol": "std::basic_ostream<char,std::char_traits<char> >::operator<<+29337"
    },
    {
      "pc": "0x000000013f6656e8",
      "symbol": "std::basic_ostream<char,std::char_traits<char> >::operator<<+24856"
    },
    {
      "pc": "0x000000013f78dd82",
      "symbol": "v8::base::CPU::has_sse+59378"
    },
    {
      "pc": "0x000000013ffaa27e",
      "symbol": "v8::Isolate::ReportExternalAllocationLimitReached+94"
    },
    {
      "pc": "0x000000013ff92351",
      "symbol": "v8::SharedArrayBuffer::Externalize+833"
    },
    {
      "pc": "0x000000013fe5e8ac",
      "symbol": "v8::internal::Heap::EphemeronKeyWriteBarrierFromCode+1436"
    },
    {
      "pc": "0x000000013fe7b78b",
      "symbol": "v8::internal::Factory::NewFixedArrayWithFiller+59"
    },
    {
      "pc": "0x000000013fe7b741",
      "symbol": "v8::internal::Factory::NewUninitializedFixedArray+65"
    },
    {
      "pc": "0x000000013fd584ff",
      "symbol": "v8::Message::GetIsolate+7631"
    },
    {
      "pc": "0x000000013fc089ca",
      "symbol": "v8::internal::interpreter::JumpTableTargetOffsets::iterator::operator=+162938"
    },
    {
      "pc": "0x00000001403f730d",
      "symbol": "v8::internal::SetupIsolateDelegate::SetupHeap+546637"
    },
    {
      "pc": "0x00000151c02c7889",
      "symbol": ""
    }
  ],
  "javascriptHeap": {
    "totalMemory": 2755104768,
    "totalCommittedMemory": 2755104768,
    "usedMemory": 2705406008,
    "availableMemory": 16759296,
    "memoryLimit": 2197815296,
    "heapSpaces": {
      "read_only_space": {
        "memorySize": 262144,
        "committedMemory": 262144,
        "capacity": 32808,
        "used": 32808,
        "available": 0
      },
      "new_space": {
        "memorySize": 33554432,
        "committedMemory": 33554432,
        "capacity": 16759296,
        "used": 0,
        "available": 16759296
      },
      "old_space": {
        "memorySize": 30810112,
        "committedMemory": 30810112,
        "capacity": 15543176,
        "used": 15543176,
        "available": 0
      },
      "code_space": {
        "memorySize": 430080,
        "committedMemory": 430080,
        "capacity": 347008,
        "used": 347008,
        "available": 0
      },
      "map_space": {
        "memorySize": 1314816,
        "committedMemory": 1314816,
        "capacity": 837280,
        "used": 837280,
        "available": 0
      },
      "large_object_space": {
        "memorySize": 1786171392,
        "committedMemory": 1786171392,
        "capacity": 1786132072,
        "used": 1786132072,
        "available": 0
      },
      "code_large_object_space": {
        "memorySize": 49152,
        "committedMemory": 49152,
        "capacity": 2784,
        "used": 2784,
        "available": 0
      },
      "new_large_object_space": {
        "memorySize": 902512640,
        "committedMemory": 902512640,
        "capacity": 902510880,
        "used": 902510880,
        "available": 0
      }
    }
  },
  "resourceUsage": {
    "userCpuSeconds": 17.191,
    "kernelCpuSeconds": 4.212,
    "cpuConsumptionPercent": 76.4393,
    "maxRss": 2812080128,
    "pageFaults": {
      "IORequired": 698362,
      "IONotRequired": 0
    },
    "fsActivity": {
      "reads": 1524,
      "writes": 2
    }
  },
  "libuv": [
  ],
  "workers": [
  ],
  "environmentVariables": {
    "ACLOCAL_PATH": "C:\\Program Files\\Git\\mingw64\\share\\aclocal;C:\\Program Files\\Git\\usr\\share\\aclocal",
    "ALLUSERSPROFILE": "C:\\ProgramData",
    "APPDATA": "C:\\Users\\Isabel\\AppData\\Roaming",
    "COMMONPROGRAMFILES": "C:\\Program Files\\Common Files",
    "CommonProgramFiles(x86)": "C:\\Program Files (x86)\\Common Files",
    "CommonProgramW6432": "C:\\Program Files\\Common Files",
    "COMPUTERNAME": "AMDPC",
    "COMSPEC": "C:\\Windows\\system32\\cmd.exe",
    "CONFIG_SITE": "C:/Program Files/Git/mingw64/etc/config.site",
    "DISPLAY": "needs-to-be-defined",
    "dp0": "C:\\Users\\Isabel\\Documents\\GitHub\\katasrunners\\isromar\\ejercicios_basicos\\3-caesars-cypher\\javascript\\node_modules\\.bin\\",
    "ESET_OPTIONS": "                                                                                                                                                                                                                                                                                                                                                                                                                                                                                                                               ",
    "EXEPATH": "C:\\Program Files\\Git",
    "FP_NO_HOST_CHECK": "NO",
    "HOME": "C:\\Users\\Isabel",
    "HOMEDRIVE": "C:",
    "HOMEPATH": "\\Users\\Isabel",
    "HOSTNAME": "AMDPC",
    "INFOPATH": "C:\\Program Files\\Git\\usr\\local\\info;C:\\Program Files\\Git\\usr\\share\\info;C:\\Program Files\\Git\\usr\\info;C:\\Program Files\\Git\\share\\info",
    "INIT_CWD": "C:\\Users\\Isabel\\Documents\\Github\\katasrunners\\isromar\\ejercicios_basicos\\3-caesars-cypher\\javascript",
    "JAVA_HOME": "C:\\Users\\Isabel\\AppData\\Local\\Programs\\AdoptOpenJDK\\;C:\\WINDOWS\\SYSTEM32;C:\\WINDOWS;C:\\Users\\Isabel\\AppData\\Local\\Programs\\AdoptOpenJDK\\bin",
    "LANG": "es_ES.UTF-8",
    "LOCALAPPDATA": "C:\\Users\\Isabel\\AppData\\Local",
    "LOGONSERVER": "\\\\AMDPC",
    "MANPATH": "C:\\Program Files\\Git\\mingw64\\local\\man;C:\\Program Files\\Git\\mingw64\\share\\man;C:\\Program Files\\Git\\usr\\local\\man;C:\\Program Files\\Git\\usr\\share\\man;C:\\Program Files\\Git\\usr\\man;C:\\Program Files\\Git\\share\\man",
    "MINGW_CHOST": "x86_64-w64-mingw32",
    "MINGW_PACKAGE_PREFIX": "mingw-w64-x86_64",
    "MINGW_PREFIX": "C:/Program Files/Git/mingw64",
    "MOZ_PLUGIN_PATH": "C:\\Programas\\Foxit Reader\\plugins\\",
    "MSYSTEM": "MINGW64",
    "MSYSTEM_CARCH": "x86_64",
    "MSYSTEM_CHOST": "x86_64-w64-mingw32",
    "MSYSTEM_PREFIX": "C:/Program Files/Git/mingw64",
    "NODE": "C:\\Program Files\\nodejs\\node.exe",
    "npm_config_access": "",
    "npm_config_allow_same_version": "",
    "npm_config_also": "",
    "npm_config_always_auth": "",
    "npm_config_argv": "{\"remain\":[],\"cooked\":[\"test\"],\"original\":[\"test\"]}",
    "npm_config_audit": "true",
    "npm_config_audit_level": "low",
    "npm_config_auth_type": "legacy",
    "npm_config_before": "",
    "npm_config_bin_links": "true",
    "npm_config_browser": "",
    "npm_config_ca": "",
    "npm_config_cache": "C:\\Users\\Isabel\\AppData\\Roaming\\npm-cache",
    "npm_config_cache_lock_retries": "10",
    "npm_config_cache_lock_stale": "60000",
    "npm_config_cache_lock_wait": "10000",
    "npm_config_cache_max": "Infinity",
    "npm_config_cache_min": "10",
    "npm_config_cafile": "",
    "npm_config_cert": "",
    "npm_config_cidr": "",
    "npm_config_color": "true",
    "npm_config_commit_hooks": "true",
    "npm_config_depth": "Infinity",
    "npm_config_description": "true",
    "npm_config_dev": "",
    "npm_config_dry_run": "",
    "npm_config_editor": "notepad.exe",
    "npm_config_engine_strict": "",
    "npm_config_fetch_retries": "2",
    "npm_config_fetch_retry_factor": "10",
    "npm_config_fetch_retry_maxtimeout": "60000",
    "npm_config_fetch_retry_mintimeout": "10000",
    "npm_config_force": "",
    "npm_config_format_package_lock": "true",
    "npm_config_fund": "true",
    "npm_config_git": "git",
    "npm_config_git_tag_version": "true",
    "npm_config_global": "",
    "npm_config_globalconfig": "C:\\Users\\Isabel\\AppData\\Roaming\\npm\\etc\\npmrc",
    "npm_config_globalignorefile": "C:\\Users\\Isabel\\AppData\\Roaming\\npm\\etc\\npmignore",
    "npm_config_global_style": "",
    "npm_config_group": "",
    "npm_config_ham_it_up": "",
    "npm_config_heading": "npm",
    "npm_config_https_proxy": "",
    "npm_config_if_present": "",
    "npm_config_ignore_prepublish": "",
    "npm_config_ignore_scripts": "",
    "npm_config_init_author_email": "",
    "npm_config_init_author_name": "",
    "npm_config_init_author_url": "",
    "npm_config_init_license": "ISC",
    "npm_config_init_module": "C:\\Users\\Isabel\\.npm-init.js",
    "npm_config_init_version": "1.0.0",
    "npm_config_json": "",
    "npm_config_key": "",
    "npm_config_legacy_bundling": "",
    "npm_config_link": "",
    "npm_config_local_address": "",
    "npm_config_loglevel": "notice",
    "npm_config_logs_max": "10",
    "npm_config_long": "",
    "npm_config_maxsockets": "50",
    "npm_config_message": "%s",
    "npm_config_metrics_registry": "https://registry.npmjs.org/",
    "npm_config_node_gyp": "C:\\Program Files\\nodejs\\node_modules\\npm\\node_modules\\node-gyp\\bin\\node-gyp.js",
    "npm_config_node_options": "",
    "npm_config_node_version": "12.16.2",
    "npm_config_noproxy": "",
    "npm_config_offline": "",
    "npm_config_onload_script": "",
    "npm_config_only": "",
    "npm_config_optional": "true",
    "npm_config_otp": "",
    "npm_config_package_lock": "true",
    "npm_config_package_lock_only": "",
    "npm_config_parseable": "",
    "npm_config_prefer_offline": "",
    "npm_config_prefer_online": "",
    "npm_config_prefix": "C:\\Users\\Isabel\\AppData\\Roaming\\npm",
    "npm_config_preid": "",
    "npm_config_production": "",
    "npm_config_progress": "true",
    "npm_config_proxy": "",
    "npm_config_read_only": "",
    "npm_config_rebuild_bundle": "true",
    "npm_config_registry": "https://registry.npmjs.org/",
    "npm_config_rollback": "true",
    "npm_config_save": "true",
    "npm_config_save_bundle": "",
    "npm_config_save_dev": "",
    "npm_config_save_exact": "",
    "npm_config_save_optional": "",
    "npm_config_save_prefix": "^",
    "npm_config_save_prod": "",
    "npm_config_scope": "",
    "npm_config_scripts_prepend_node_path": "warn-only",
    "npm_config_script_shell": "",
    "npm_config_searchexclude": "",
    "npm_config_searchlimit": "20",
    "npm_config_searchopts": "",
    "npm_config_searchstaleness": "900",
    "npm_config_send_metrics": "",
    "npm_config_shell": "C:\\Windows\\system32\\cmd.exe",
    "npm_config_shrinkwrap": "true",
    "npm_config_sign_git_commit": "",
    "npm_config_sign_git_tag": "",
    "npm_config_sso_poll_frequency": "500",
    "npm_config_sso_type": "oauth",
    "npm_config_strict_ssl": "true",
    "npm_config_tag": "latest",
    "npm_config_tag_version_prefix": "v",
    "npm_config_timing": "",
    "npm_config_tmp": "C:\\Users\\Isabel\\AppData\\Local\\Tmp",
    "npm_config_umask": "0000",
    "npm_config_unicode": "",
    "npm_config_unsafe_perm": "true",
    "npm_config_update_notifier": "true",
    "npm_config_usage": "",
    "npm_config_user": "",
    "npm_config_userconfig": "C:\\Users\\Isabel\\.npmrc",
    "npm_config_user_agent": "npm/6.14.4 node/v12.16.2 win32 x64",
    "npm_config_version": "",
    "npm_config_versions": "",
    "npm_config_viewer": "browser",
    "npm_execpath": "C:\\Program Files\\nodejs\\node_modules\\npm\\bin\\npm-cli.js",
    "npm_lifecycle_event": "test",
    "npm_lifecycle_script": "babel-node ./spec/run.js",
    "npm_node_execpath": "C:\\Program Files\\nodejs\\node.exe",
    "npm_package_author": "",
    "npm_package_description": "",
    "npm_package_devDependencies_jasmine": "^3.5.0",
    "npm_package_devDependencies__babel_core": "^7.7.7",
    "npm_package_devDependencies__babel_node": "^7.7.7",
    "npm_package_devDependencies__babel_preset_env": "^7.7.7",
    "npm_package_devDependencies__babel_register": "^7.7.7",
    "npm_package_license": "ISC",
    "npm_package_main": "index.js",
    "npm_package_name": "roman_numerals",
    "npm_package_scripts_test": "babel-node ./spec/run.js",
    "npm_package_version": "1.0.0",
    "NUMBER_OF_PROCESSORS": "4",
    "OLDPWD": "C:/Users/Isabel/Documents/Github/katasrunners/isromar/ejercicios_basicos/3-caesars-cypher",
    "OneDrive": "C:\\Users\\Isabel\\OneDrive",
    "OneDriveConsumer": "C:\\Users\\Isabel\\OneDrive",
    "ORIGINAL_PATH": "C:\\Program Files\\Git\\mingw64\\bin;C:\\Program Files\\Git\\usr\\bin;C:\\Users\\Isabel\\bin;C:\\Program Files (x86)\\Python\\Scripts;C:\\Program Files (x86)\\Python;C:\\Program Files (x86)\\Common Files\\Oracle\\Java\\javapath;C:\\ProgramData\\Oracle\\Java\\javapath;C:\\Program Files\\Common Files\\Microsoft Shared\\Windows Live;C:\\Program Files (x86)\\Common Files\\Microsoft Shared\\Windows Live;C:\\Windows\\system32;C:\\Windows;C:\\Windows\\System32\\Wbem;C:\\Windows\\System32\\WindowsPowerShell\\v1.0;C:\\Programas\\ATI Technologies\\ATI.ACE\\Core-Static;C:\\Programas\\AMD Catalyst 64bit\\ATI.ACE\\Core-Static;C:\\Programas\\AMD Catalyst\\ATI.ACE\\Core-Static;C:\\Programas\\Calibre2;C:\\Program Files (x86)\\AMD\\ATI.ACE\\Core-Static;C:\\Program Files (x86)\\Windows Live\\Shared;C:\\Program Files\\AutoFirma\\AutoFirma;C:\\Program Files (x86)\\Boxcryptor\\bin;C:\\Program Files (x86)\\QuickTime\\QTSystem;C:\\Program Files\\nodejs;C:\\Program Files\\Git\\cmd;C:\\Program Files (x86)\\git-cola\\bin;C:\\Users\\Isabel\\AppData\\Local\\Programs\\AdoptOpenJDK\\bin;C:\\Users\\Isabel\\AppData\\Local\\atom\\bin;C:\\WINDOWS\\SYSTEM32;C:\\WINDOWS;C:\\Users\\Isabel\\AppData\\Roaming\\npm;C:\\Users\\Isabel\\AppData\\Local\\GitHubDesktop\\bin",
    "ORIGINAL_TEMP": "C:/Users/Isabel/AppData/Local/Tmp",
    "ORIGINAL_TMP": "C:/Users/Isabel/AppData/Local/Tmp",
    "OS": "Windows_NT",
    "PATH": "C:\\Program Files\\nodejs\\node_modules\\npm\\node_modules\\npm-lifecycle\\node-gyp-bin;C:\\Users\\Isabel\\Documents\\Github\\katasrunners\\isromar\\ejercicios_basicos\\3-caesars-cypher\\javascript\\node_modules\\.bin;C:\\Users\\Isabel\\bin;C:\\Program Files\\Git\\mingw64\\bin;C:\\Program Files\\Git\\usr\\local\\bin;C:\\Program Files\\Git\\usr\\bin;C:\\Program Files\\Git\\usr\\bin;C:\\Program Files\\Git\\mingw64\\bin;C:\\Program Files\\Git\\usr\\bin;C:\\Users\\Isabel\\bin;C:\\Program Files (x86)\\Python\\Scripts;C:\\Program Files (x86)\\Python;C:\\Program Files (x86)\\Common Files\\Oracle\\Java\\javapath;C:\\ProgramData\\Oracle\\Java\\javapath;C:\\Program Files\\Common Files\\Microsoft Shared\\Windows Live;C:\\Program Files (x86)\\Common Files\\Microsoft Shared\\Windows Live;C:\\Windows\\system32;C:\\Windows;C:\\Windows\\System32\\Wbem;C:\\Windows\\System32\\WindowsPowerShell\\v1.0;C:\\Programas\\ATI Technologies\\ATI.ACE\\Core-Static;C:\\Programas\\AMD Catalyst 64bit\\ATI.ACE\\Core-Static;C:\\Programas\\AMD Catalyst\\ATI.ACE\\Core-Static;C:\\Programas\\Calibre2;C:\\Program Files (x86)\\AMD\\ATI.ACE\\Core-Static;C:\\Program Files (x86)\\Windows Live\\Shared;C:\\Program Files\\AutoFirma\\AutoFirma;C:\\Program Files (x86)\\Boxcryptor\\bin;C:\\Program Files (x86)\\QuickTime\\QTSystem;C:\\Program Files\\nodejs;C:\\Program Files\\Git\\cmd;C:\\Program Files (x86)\\git-cola\\bin;C:\\Users\\Isabel\\AppData\\Local\\Programs\\AdoptOpenJDK\\bin;C:\\Users\\Isabel\\AppData\\Local\\atom\\bin;C:\\WINDOWS\\SYSTEM32;C:\\WINDOWS;C:\\Users\\Isabel\\AppData\\Roaming\\npm;C:\\Users\\Isabel\\AppData\\Local\\GitHubDesktop\\bin;C:\\Program Files\\Git\\usr\\bin\\vendor_perl;C:\\Program Files\\Git\\usr\\bin\\core_perl",
    "Path": "C:\\Program Files\\nodejs\\node_modules\\npm\\node_modules\\npm-lifecycle\\node-gyp-bin;C:\\Users\\Isabel\\Documents\\Github\\katasrunners\\isromar\\ejercicios_basicos\\3-caesars-cypher\\javascript\\node_modules\\.bin;C:\\Users\\Isabel\\bin;C:\\Program Files\\Git\\mingw64\\bin;C:\\Program Files\\Git\\usr\\local\\bin;C:\\Program Files\\Git\\usr\\bin;C:\\Program Files\\Git\\usr\\bin;C:\\Program Files\\Git\\mingw64\\bin;C:\\Program Files\\Git\\usr\\bin;C:\\Users\\Isabel\\bin;C:\\Program Files (x86)\\Python\\Scripts;C:\\Program Files (x86)\\Python;C:\\Program Files (x86)\\Common Files\\Oracle\\Java\\javapath;C:\\ProgramData\\Oracle\\Java\\javapath;C:\\Program Files\\Common Files\\Microsoft Shared\\Windows Live;C:\\Program Files (x86)\\Common Files\\Microsoft Shared\\Windows Live;C:\\Windows\\system32;C:\\Windows;C:\\Windows\\System32\\Wbem;C:\\Windows\\System32\\WindowsPowerShell\\v1.0;C:\\Programas\\ATI Technologies\\ATI.ACE\\Core-Static;C:\\Programas\\AMD Catalyst 64bit\\ATI.ACE\\Core-Static;C:\\Programas\\AMD Catalyst\\ATI.ACE\\Core-Static;C:\\Programas\\Calibre2;C:\\Program Files (x86)\\AMD\\ATI.ACE\\Core-Static;C:\\Program Files (x86)\\Windows Live\\Shared;C:\\Program Files\\AutoFirma\\AutoFirma;C:\\Program Files (x86)\\Boxcryptor\\bin;C:\\Program Files (x86)\\QuickTime\\QTSystem;C:\\Program Files\\nodejs;C:\\Program Files\\Git\\cmd;C:\\Program Files (x86)\\git-cola\\bin;C:\\Users\\Isabel\\AppData\\Local\\Programs\\AdoptOpenJDK\\bin;C:\\Users\\Isabel\\AppData\\Local\\atom\\bin;C:\\WINDOWS\\SYSTEM32;C:\\WINDOWS;C:\\Users\\Isabel\\AppData\\Roaming\\npm;C:\\Users\\Isabel\\AppData\\Local\\GitHubDesktop\\bin;C:\\Program Files\\Git\\usr\\bin\\vendor_perl;C:\\Program Files\\Git\\usr\\bin\\core_perl",
    "PATHEXT": ".COM;.EXE;.BAT;.CMD;.VBS;.VBE;.JSE;.WSF;.WSH;.MSC;.PY;.PYW",
    "PKG_CONFIG_PATH": "C:\\Program Files\\Git\\mingw64\\lib\\pkgconfig;C:\\Program Files\\Git\\mingw64\\share\\pkgconfig",
    "PLINK_PROTOCOL": "ssh",
    "PROCESSOR_ARCHITECTURE": "AMD64",
    "PROCESSOR_IDENTIFIER": "AMD64 Family 21 Model 16 Stepping 1, AuthenticAMD",
    "PROCESSOR_LEVEL": "21",
    "PROCESSOR_REVISION": "1001",
    "ProgramData": "C:\\ProgramData",
    "PROGRAMFILES": "C:\\Program Files",
    "ProgramFiles(x86)": "C:\\Program Files (x86)",
    "ProgramW6432": "C:\\Program Files",
    "PROMPT": "$P$G",
    "PSModulePath": "C:\\Windows\\system32\\WindowsPowerShell\\v1.0\\Modules\\",
    "PUBLIC": "C:\\Users\\Public",
    "PWD": "C:/Users/Isabel/Documents/Github/katasrunners/isromar/ejercicios_basicos/3-caesars-cypher/javascript",
    "SESSIONNAME": "Console",
    "SHELL": "C:\\Program Files\\Git\\usr\\bin\\bash.exe",
    "SHLVL": "2",
    "SSH_ASKPASS": "C:/Program Files/Git/mingw64/libexec/git-core/git-gui--askpass",
    "SYSTEMDRIVE": "C:",
    "SYSTEMROOT": "C:\\Windows",
    "TEMP": "C:\\Users\\Isabel\\AppData\\Local\\Tmp",
    "TERM": "cygwin",
    "TMP": "C:\\Users\\Isabel\\AppData\\Local\\Tmp",
    "TMPDIR": "C:\\Users\\Isabel\\AppData\\Local\\Tmp",
    "USERDOMAIN": "AMDPC",
    "USERNAME": "Isabel",
    "USERPROFILE": "C:\\Users\\Isabel",
    "VBOX_MSI_INSTALL_PATH": "C:\\Program Files\\VirtualBox\\",
    "WINDIR": "C:\\Windows",
    "windows_tracing_flags": "3",
    "windows_tracing_logfile": "C:\\BVTBin\\Tests\\installpackage\\csilogfile.log",
    "_": "C:/Program Files/nodejs/node.exe",
    "_prog": "node"
  },
  "sharedObjects": [
    "C:\\Program Files\\nodejs\\node.exe",
    "C:\\Windows\\SYSTEM32\\ntdll.dll",
    "C:\\Program Files\\AVAST Software\\Avast\\aswhook.dll",
    "C:\\Windows\\system32\\kernel32.dll",
    "C:\\Windows\\system32\\KERNELBASE.dll",
    "C:\\Windows\\system32\\dbghelp.dll",
    "C:\\Windows\\system32\\msvcrt.dll",
    "C:\\Windows\\system32\\WS2_32.dll",
    "C:\\Windows\\system32\\RPCRT4.dll",
    "C:\\Windows\\system32\\NSI.dll",
    "C:\\Windows\\system32\\IPHLPAPI.DLL",
    "C:\\Windows\\system32\\WINNSI.DLL",
    "C:\\Windows\\system32\\PSAPI.DLL",
    "C:\\Windows\\system32\\USERENV.dll",
    "C:\\Windows\\system32\\profapi.dll",
    "C:\\Windows\\system32\\ADVAPI32.dll",
    "C:\\Windows\\SYSTEM32\\sechost.dll",
    "C:\\Windows\\system32\\USER32.dll",
    "C:\\Windows\\system32\\GDI32.dll",
    "C:\\Windows\\system32\\LPK.dll",
    "C:\\Windows\\system32\\USP10.dll",
    "C:\\Windows\\system32\\CRYPT32.dll",
    "C:\\Windows\\system32\\MSASN1.dll",
    "C:\\Windows\\system32\\bcrypt.dll",
    "C:\\Windows\\system32\\WINMM.dll",
    "C:\\Windows\\system32\\IMM32.DLL",
    "C:\\Windows\\system32\\MSCTF.dll",
    "C:\\Windows\\system32\\api-ms-win-core-synch-l1-2-0.DLL",
    "C:\\Windows\\system32\\powrprof.dll",
    "C:\\Windows\\system32\\SETUPAPI.dll",
    "C:\\Windows\\system32\\CFGMGR32.dll",
    "C:\\Windows\\system32\\OLEAUT32.dll",
    "C:\\Windows\\system32\\ole32.dll",
    "C:\\Windows\\system32\\DEVOBJ.dll",
    "C:\\Windows\\system32\\uxtheme.dll",
    "C:\\Windows\\system32\\mswsock.dll",
    "C:\\Windows\\System32\\wshtcpip.dll",
    "C:\\Windows\\System32\\wship6.dll",
    "C:\\Windows\\system32\\bcryptprimitives.dll",
    "C:\\Windows\\system32\\dhcpcsvc6.DLL",
    "C:\\Windows\\system32\\dhcpcsvc.DLL",
    "C:\\Windows\\system32\\NLAapi.dll",
    "C:\\Windows\\system32\\napinsp.dll",
    "C:\\Windows\\system32\\pnrpnsp.dll",
    "C:\\Windows\\system32\\DNSAPI.dll",
    "C:\\Windows\\System32\\winrnr.dll",
    "C:\\Program Files\\Common Files\\Microsoft Shared\\Windows Live\\WLIDNSP.DLL",
    "C:\\Windows\\system32\\SHLWAPI.dll"
  ]
}